<svg viewBox="0 0 200 200" xmlns="http://www.w3.org/2000/svg" width="50" height="50">

    <rect width="100%" height="100%" fill="white" />

    <polygon
            points="80,150 120,150 120,170 100,190 80,170"
            fill="white"
            stroke-width="5"
            stroke="black"/>

    <polygon
            points="10,100 40,70 70,100 40,130 10,100"
            fill="$THIRD$"
            stroke-width="5"
            stroke="black"/>

    <polygon
            points="100,10 70,40 100,70 130,40 100,10"
            fill="$SECOND$"
            stroke-width="5"
            stroke="black"/>

    <polygon
            points="190,100 160,70 130,100 160,130 190,100"
            fill="$FIRST$"
            stroke-width="5"
            stroke="black"/>

</svg>
